[
    {
        "location": "Delhi",
        "availableStartingDate": "25-08-2022",
        "currency": "INR",
        "price": "100000",
        "propertyType": "House",
        "imageUrl": "https://is1-3.housingcdn.com/01c16c28/bb8d07587b6bf307ae4c1085547b6ffe/v0/large/2_bhk_independent_house-for-rent-prakash_nagar_kadapa-YSR-others.jpg"
    },
    {
        "location": "Mumbai",
        "availableStartingDate": "25-08-2022",
        "currency": "INR",
        "price": "150000",
        "propertyType": "Villa",
        "imageUrl": "https://a0.muscache.com/im/pictures/442c8f7a-5039-41da-9a90-fdd13c545dbc.jpg?aki_policy=large"
    },
    {
        "location": "Bangalore",
        "availableStartingDate": "26-08-2022",
        "currency": "INR",
        "price": "70000",
        "propertyType": "House",
        "imageUrl": "https://img.gtsstatic.net/reno/imagereader.aspx?imageurl=https%3A%2F%2Fsir.azureedge.net%2F1103i215%2Fnx4614cp5skamry5a1pmdsv3m0i215&option=N&h=472&permitphotoenlargement=false"
    },
    {
        "location": "Delhi",
        "availableStartingDate": "26-08-2022",
        "currency": "INR",
        "price": "30000",
        "propertyType": "Flat",
        "imageUrl": "https://images.hindustantimes.com/rf/image_size_960x540/HT/p2/2020/01/08/Pictures/_d4686b70-31d8-11ea-866e-f0adb255fbdd.jpg"
    },
    {
        "location": "Mumbai",
        "availableStartingDate": "30-08-2022",
        "currency": "INR",
        "price": "30000",
        "propertyType": "Flat",
        "imageUrl": "https://newprojects.99acres.com/projects/unknown/k.m._apartments/images/front_new.jpg"
    },
    {
        "location": "Bangalore",
        "availableStartingDate": "30-08-2022",
        "currency": "INR",
        "price": "20000",
        "propertyType": "Flat",
        "imageUrl": "https://teja8.kuikr.com//r1/20160503/ak_1664_409992496-1462259566_700x700.jpeg"
    },
    {
        "location": "Delhi",
        "availableStartingDate": "12-09-2022",
        "currency": "INR",
        "price": "8000",
        "propertyType": "Flat",
        "imageUrl": "https://encrypted-tbn0.gstatic.com/images?q=tbn:ANd9GcTZcJd-ZTbXXiy3ASKMSlNF0n-1DbQxilKUODG9a-HJ0nbsNfeef2y50kMZDJ9g-7mexy4&usqp=CAU"
    },
    {
        "location": "Mumbai",
        "availableStartingDate": "12-09-2022",
        "currency": "INR",
        "price": "10000",
        "propertyType": "Flat",
        "imageUrl": "https://img.staticmb.com/mbimages/project/Photo_h300_w450/Project-Photo-6-The-New-Raajput-Apartment-New-Delhi-5074382_1296_972_300_450.JPEG"
    },
    {
        "location": "Bangalore",
        "availableStartingDate": "24-09-2022",
        "currency": "INR",
        "price": "150000",
        "propertyType": "Villa",
        "imageUrl": "https://s3.ap-south-1.amazonaws.com/www.cimg.in/images/2018/07/09/34/151504542_15311594471_large.jpeg"
    }
]